{
    "System": "aurum, Darwin-15.6.0-x86_64-i386-64bit, Python 3.5.2",
    "ThetaGrid": [
        [
            [
                10,
                1
            ],
            [
                10,
                10
            ],
            [
                10,
                50
            ],
            [
                10,
                100
            ],
            [
                10,
                300
            ],
            [
                10,
                500
            ],
            [
                10,
                1000
            ]
        ],
        [
            [
                50,
                1
            ],
            [
                50,
                10
            ],
            [
                50,
                50
            ],
            [
                50,
                100
            ],
            [
                50,
                300
            ],
            [
                50,
                500
            ],
            [
                50,
                1000
            ]
        ],
        [
            [
                100,
                1
            ],
            [
                100,
                10
            ],
            [
                100,
                50
            ],
            [
                100,
                100
            ],
            [
                100,
                300
            ],
            [
                100,
                500
            ],
            [
                100,
                1000
            ]
        ],
        [
            [
                500,
                1
            ],
            [
                500,
                10
            ],
            [
                500,
                50
            ],
            [
                500,
                100
            ],
            [
                500,
                300
            ],
            [
                500,
                500
            ],
            [
                500,
                1000
            ]
        ],
        [
            [
                1000,
                1
            ],
            [
                1000,
                10
            ],
            [
                1000,
                50
            ],
            [
                1000,
                100
            ],
            [
                1000,
                300
            ],
            [
                1000,
                500
            ],
            [
                1000,
                1000
            ]
        ],
        [
            [
                5000,
                1
            ],
            [
                5000,
                10
            ],
            [
                5000,
                50
            ],
            [
                5000,
                100
            ],
            [
                5000,
                300
            ],
            [
                5000,
                500
            ],
            [
                5000,
                1000
            ]
        ]
    ],
    "Theta": [
        [
            "n",
            [
                10,
                50,
                100,
                500,
                1000,
                5000
            ]
        ],
        [
            "d",
            [
                1,
                10,
                50,
                100,
                300,
                500,
                1000
            ]
        ]
    ],
    "Benchmark": "One-norm distance matrix L, Python/C++/naive",
    "DateTime": "2016-08-04_09-05",
    "Timings": [
        [
            2.1818625188935527e-05,
            2.258352771267641e-05,
            2.4944090577765486e-05,
            2.9027794358875392e-05,
            4.453275576285175e-05,
            5.9750960215208156e-05,
            9.922767889023726e-05
        ],
        [
            2.5261534467834167e-05,
            3.755735465100131e-05,
            9.850613603228115e-05,
            0.00019428447850725866,
            0.0005878971765414141,
            0.0009789301121332784,
            0.0019597217496483896
        ],
        [
            3.4683485167230114e-05,
            8.254474943099721e-05,
            0.0003220032500563921,
            0.0007106707181848649,
            0.002288298626881577,
            0.0038523557659490898,
            0.007771365788963086
        ],
        [
            0.00032403796419915195,
            0.0015295191285005726,
            0.007497180588195925,
            0.0172826304050036,
            0.05659928858513062,
            0.09593966349996208,
            0.19547444237491618
        ],
        [
            0.002457259736470577,
            0.007134541655212481,
            0.031723846312502246,
            0.0708282768863352,
            0.22841388343738345,
            0.39187452199962536,
            0.8760550847505328
        ],
        [
            0.09906673450001335,
            0.22804772462495748,
            0.850224787499883,
            1.8924992825000118,
            6.749029315500138,
            11.321141828499549,
            22.621011765750154
        ]
    ]
}