{
    "ThetaGrid": [
        [
            [
                10,
                1
            ],
            [
                10,
                10
            ],
            [
                10,
                50
            ],
            [
                10,
                100
            ],
            [
                10,
                300
            ],
            [
                10,
                500
            ],
            [
                10,
                1000
            ]
        ],
        [
            [
                50,
                1
            ],
            [
                50,
                10
            ],
            [
                50,
                50
            ],
            [
                50,
                100
            ],
            [
                50,
                300
            ],
            [
                50,
                500
            ],
            [
                50,
                1000
            ]
        ],
        [
            [
                100,
                1
            ],
            [
                100,
                10
            ],
            [
                100,
                50
            ],
            [
                100,
                100
            ],
            [
                100,
                300
            ],
            [
                100,
                500
            ],
            [
                100,
                1000
            ]
        ],
        [
            [
                500,
                1
            ],
            [
                500,
                10
            ],
            [
                500,
                50
            ],
            [
                500,
                100
            ],
            [
                500,
                300
            ],
            [
                500,
                500
            ],
            [
                500,
                1000
            ]
        ],
        [
            [
                1000,
                1
            ],
            [
                1000,
                10
            ],
            [
                1000,
                50
            ],
            [
                1000,
                100
            ],
            [
                1000,
                300
            ],
            [
                1000,
                500
            ],
            [
                1000,
                1000
            ]
        ],
        [
            [
                5000,
                1
            ],
            [
                5000,
                10
            ],
            [
                5000,
                50
            ],
            [
                5000,
                100
            ],
            [
                5000,
                300
            ],
            [
                5000,
                500
            ],
            [
                5000,
                1000
            ]
        ]
    ],
    "System": "aurum, Darwin-15.6.0-x86_64-i386-64bit, Python 3.5.2",
    "Theta": [
        [
            "n",
            [
                10,
                50,
                100,
                500,
                1000,
                5000
            ]
        ],
        [
            "d",
            [
                1,
                10,
                50,
                100,
                300,
                500,
                1000
            ]
        ]
    ],
    "Benchmark": "One-norm distance matrix K, Python/C++/BLAS/v1",
    "Timings": [
        [
            2.1165773725176964e-05,
            2.6667181807746406e-05,
            2.7099160019773683e-05,
            2.9110232223866948e-05,
            3.642233318296534e-05,
            4.6937343436813684e-05,
            6.0135593437430624e-05
        ],
        [
            4.629101266344168e-05,
            8.055915273218745e-05,
            0.0001037216899004962,
            0.0001500284930695345,
            0.0003214804249236147,
            0.0005087562701505653,
            0.0010348040585197575
        ],
        [
            0.00012435284117845883,
            0.0002461225431260667,
            0.0003434828244072051,
            0.000527556121948338,
            0.001216595036580149,
            0.0021284625979073038,
            0.004065389349687999
        ],
        [
            0.002591742055325007,
            0.005488343407569698,
            0.00793551122908202,
            0.012727485940227445,
            0.03216234773913912,
            0.05302215990834395,
            0.1061857116964526
        ],
        [
            0.011473625656307855,
            0.023002991138971376,
            0.03305469808697126,
            0.05212720951665991,
            0.12975590391670266,
            0.22300298668756113,
            0.6028622692500676
        ],
        [
            0.333267962500031,
            0.6314811289998943,
            0.8902942490001351,
            1.4732190207500935,
            5.705220521249885,
            9.590048637749987,
            18.554294038249964
        ]
    ],
    "DateTime": "2016-08-04_08-37"
}