{
    "ThetaGrid": [
        [
            [
                10,
                1
            ],
            [
                10,
                10
            ],
            [
                10,
                50
            ],
            [
                10,
                100
            ],
            [
                10,
                300
            ],
            [
                10,
                500
            ],
            [
                10,
                1000
            ],
            [
                10,
                10000
            ]
        ],
        [
            [
                50,
                1
            ],
            [
                50,
                10
            ],
            [
                50,
                50
            ],
            [
                50,
                100
            ],
            [
                50,
                300
            ],
            [
                50,
                500
            ],
            [
                50,
                1000
            ],
            [
                50,
                10000
            ]
        ],
        [
            [
                100,
                1
            ],
            [
                100,
                10
            ],
            [
                100,
                50
            ],
            [
                100,
                100
            ],
            [
                100,
                300
            ],
            [
                100,
                500
            ],
            [
                100,
                1000
            ],
            [
                100,
                10000
            ]
        ],
        [
            [
                500,
                1
            ],
            [
                500,
                10
            ],
            [
                500,
                50
            ],
            [
                500,
                100
            ],
            [
                500,
                300
            ],
            [
                500,
                500
            ],
            [
                500,
                1000
            ],
            [
                500,
                10000
            ]
        ],
        [
            [
                1000,
                1
            ],
            [
                1000,
                10
            ],
            [
                1000,
                50
            ],
            [
                1000,
                100
            ],
            [
                1000,
                300
            ],
            [
                1000,
                500
            ],
            [
                1000,
                1000
            ],
            [
                1000,
                10000
            ]
        ],
        [
            [
                5000,
                1
            ],
            [
                5000,
                10
            ],
            [
                5000,
                50
            ],
            [
                5000,
                100
            ],
            [
                5000,
                300
            ],
            [
                5000,
                500
            ],
            [
                5000,
                1000
            ],
            [
                5000,
                10000
            ]
        ],
        [
            [
                10000,
                1
            ],
            [
                10000,
                10
            ],
            [
                10000,
                50
            ],
            [
                10000,
                100
            ],
            [
                10000,
                300
            ],
            [
                10000,
                500
            ],
            [
                10000,
                1000
            ],
            [
                10000,
                10000
            ]
        ]
    ],
    "System": "aurum, Darwin-15.5.0-x86_64-i386-64bit, Python 3.5.1",
    "Timings": [
        [
            2.7550095407880332e-05,
            2.72059688724857e-05,
            2.9279802630739573e-05,
            3.0305813161930964e-05,
            3.4535510369395096e-05,
            3.8114376681706776e-05,
            4.747363136159909e-05,
            0.00020166355897650314
        ],
        [
            3.2266597045606225e-05,
            3.2523500837918e-05,
            3.851278967000819e-05,
            4.43313999467984e-05,
            6.625838807147077e-05,
            8.820566895084391e-05,
            0.00014553565550871897,
            0.0011499438358000508
        ],
        [
            6.535652563646956e-05,
            6.588417148552891e-05,
            7.171487350440459e-05,
            7.790948846431295e-05,
            0.00010891189104665173,
            0.00013883793735433675,
            0.00022170428787231938,
            0.0018667748046813405
        ],
        [
            0.0004050385457815736,
            0.0004316755178740931,
            0.0005132393059885301,
            0.0006187692207057565,
            0.0010595329352168852,
            0.0015133246834129652,
            0.002733000210588252,
            0.021830878578566627
        ],
        [
            0.0032465222053174227,
            0.0033167556529565827,
            0.003587409309501207,
            0.0039700420422908765,
            0.005991831899715323,
            0.007883357865677974,
            0.011811741260512005,
            0.08008408413887133
        ],
        [
            0.21753831337491647,
            0.22135507518754594,
            0.22537515706250133,
            0.23037840012494826,
            0.2681464613334204,
            0.30490304591664125,
            0.4077886886249189,
            2.1665654477499174
        ],
        [
            1.009745652249876,
            1.02667671349991,
            1.0465814717499597,
            1.070664614250063,
            1.2140608607498962,
            1.367453752999836,
            1.7936664687499615,
            8.822457162999626
        ]
    ],
    "DateTime": "2016-07-02_13-51",
    "Benchmark": "Linear kernel matrix K, Python/C++/BLAS",
    "Theta": [
        [
            "n",
            [
                10,
                50,
                100,
                500,
                1000,
                5000,
                10000
            ]
        ],
        [
            "d",
            [
                1,
                10,
                50,
                100,
                300,
                500,
                1000,
                10000
            ]
        ]
    ]
}