{
    "DateTime": "2016-07-02_16-24",
    "Benchmark": "Linear kernel matrix K, Mathematica/native",
    "System": "aurum, MacOSX-x86-64, Mathematica 10.4",
    "Theta": [
        [
            "n",
            [
                10,
                50,
                100,
                500,
                1000,
                5000,
                10000
            ]
        ],
        [
            "d",
            [
                1,
                10,
                50,
                100,
                300,
                500,
                1000,
                10000
            ]
        ]
    ],
    "ThetaGrid": [
        [
            [
                10,
                1
            ],
            [
                10,
                10
            ],
            [
                10,
                50
            ],
            [
                10,
                100
            ],
            [
                10,
                300
            ],
            [
                10,
                500
            ],
            [
                10,
                1000
            ],
            [
                10,
                10000
            ]
        ],
        [
            [
                50,
                1
            ],
            [
                50,
                10
            ],
            [
                50,
                50
            ],
            [
                50,
                100
            ],
            [
                50,
                300
            ],
            [
                50,
                500
            ],
            [
                50,
                1000
            ],
            [
                50,
                10000
            ]
        ],
        [
            [
                100,
                1
            ],
            [
                100,
                10
            ],
            [
                100,
                50
            ],
            [
                100,
                100
            ],
            [
                100,
                300
            ],
            [
                100,
                500
            ],
            [
                100,
                1000
            ],
            [
                100,
                10000
            ]
        ],
        [
            [
                500,
                1
            ],
            [
                500,
                10
            ],
            [
                500,
                50
            ],
            [
                500,
                100
            ],
            [
                500,
                300
            ],
            [
                500,
                500
            ],
            [
                500,
                1000
            ],
            [
                500,
                10000
            ]
        ],
        [
            [
                1000,
                1
            ],
            [
                1000,
                10
            ],
            [
                1000,
                50
            ],
            [
                1000,
                100
            ],
            [
                1000,
                300
            ],
            [
                1000,
                500
            ],
            [
                1000,
                1000
            ],
            [
                1000,
                10000
            ]
        ],
        [
            [
                5000,
                1
            ],
            [
                5000,
                10
            ],
            [
                5000,
                50
            ],
            [
                5000,
                100
            ],
            [
                5000,
                300
            ],
            [
                5000,
                500
            ],
            [
                5000,
                1000
            ],
            [
                5000,
                10000
            ]
        ],
        [
            [
                10000,
                1
            ],
            [
                10000,
                10
            ],
            [
                10000,
                50
            ],
            [
                10000,
                100
            ],
            [
                10000,
                300
            ],
            [
                10000,
                500
            ],
            [
                10000,
                1000
            ],
            [
                10000,
                10000
            ]
        ]
    ],
    "Timings": [
        [
            2.23578e-6,
            4.40929e-6,
            1.44557e-5,
            3.722e-6,
            8.94466e-6,
            1.29935e-5,
            2.29856e-5,
            0.00018475
        ],
        [
            1.2856e-5,
            7.68762e-6,
            1.21466e-5,
            1.98152e-5,
            4.8074e-5,
            7.68549e-5,
            0.000126117,
            0.00147333
        ],
        [
            1.2018e-5,
            1.7053e-5,
            2.94896e-5,
            4.31328e-5,
            0.000106005,
            0.000195204,
            0.000425172,
            0.00596198
        ],
        [
            0.000233635,
            0.000263169,
            0.000452514,
            0.000662546,
            0.00160982,
            0.00274439,
            0.00549813,
            0.0581582
        ],
        [
            0.00227291,
            0.00277235,
            0.00312723,
            0.00387378,
            0.00689636,
            0.0102607,
            0.0191587,
            0.18053
        ],
        [
            0.0606018,
            0.0622215,
            0.0739187,
            0.0867547,
            0.145219,
            0.199302,
            0.348297,
            2.95121
        ],
        [
            0.202247,
            0.220132,
            0.270887,
            0.32654,
            0.537158,
            0.763106,
            1.32304,
            11.1906
        ]
    ]
}