{
    "ThetaGrid": [
        [
            10
        ],
        [
            50
        ],
        [
            100
        ],
        [
            500
        ],
        [
            1000
        ],
        [
            5000
        ],
        [
            10000
        ]
    ],
    "System": "aurum, Darwin-15.5.0-x86_64-i386-64bit, Python 3.5.2",
    "Benchmark": "Forward substitution (vector), Python/SciPy",
    "Timings": [
        6.919730642769135e-05,
        8.339362281861425e-05,
        0.00010684163968547878,
        0.0009566681123957725,
        0.005431827199223005,
        0.40869059837473287,
        1.818633867000699
    ],
    "DateTime": "2016-07-20_09-57",
    "Theta": [
        [
            "n",
            [
                10,
                50,
                100,
                500,
                1000,
                5000,
                10000
            ]
        ]
    ]
}